EESchema Schematic File Version 4
EELAYER 30 0
EELAYER END
$Descr A4 11693 8268
encoding utf-8
Sheet 1 1
Title ""
Date ""
Rev ""
Comp ""
Comment1 ""
Comment2 ""
Comment3 ""
Comment4 ""
$EndDescr
$Comp
L Connector:Conn_01x02_Female J?
U 1 1 6141AEC9
P 10200 2050
F 0 "J?" H 10092 1725 50  0000 C CNN
F 1 "FrontLight" H 10092 1816 50  0000 C CNN
F 2 "" H 10200 2050 50  0001 C CNN
F 3 "~" H 10200 2050 50  0001 C CNN
	1    10200 2050
	1    0    0    -1  
$EndComp
$Comp
L Connector:Conn_01x02_Female J?
U 1 1 6141C9DA
P 10200 1100
F 0 "J?" H 10092 775 50  0000 C CNN
F 1 "RearLight" H 10092 866 50  0000 C CNN
F 2 "" H 10200 1100 50  0001 C CNN
F 3 "~" H 10200 1100 50  0001 C CNN
	1    10200 1100
	1    0    0    -1  
$EndComp
$Comp
L Relay_SolidState:34.81-9024 U?
U 1 1 61424B17
P 8900 3150
F 0 "U?" H 8900 3475 50  0000 C CNN
F 1 "34.81-9024" H 8900 3384 50  0000 C CNN
F 2 "OptoDevice:Finder_34.81" H 8700 2950 50  0001 L CIN
F 3 "http://www.us.liteon.com/downloads/LTV-817-827-847.PDF" H 8900 3150 50  0001 L CNN
	1    8900 3150
	1    0    0    -1  
$EndComp
$Comp
L Relay_SolidState:34.81-9024 U?
U 1 1 61425B8F
P 8900 3650
F 0 "U?" H 8900 3975 50  0000 C CNN
F 1 "34.81-9024" H 8900 3884 50  0000 C CNN
F 2 "OptoDevice:Finder_34.81" H 8700 3450 50  0001 L CIN
F 3 "http://www.us.liteon.com/downloads/LTV-817-827-847.PDF" H 8900 3650 50  0001 L CNN
	1    8900 3650
	1    0    0    -1  
$EndComp
$Comp
L Connector:Conn_01x02_Male J?
U 1 1 6142B849
P 1050 1250
F 0 "J?" H 1158 1431 50  0000 C CNN
F 1 "Power-37V" H 1158 1340 50  0000 C CNN
F 2 "" H 1050 1250 50  0001 C CNN
F 3 "~" H 1050 1250 50  0001 C CNN
	1    1050 1250
	1    0    0    -1  
$EndComp
$Comp
L power:VDD #PWR?
U 1 1 61442ADD
P 2200 1200
F 0 "#PWR?" H 2200 1050 50  0001 C CNN
F 1 "VDD" H 2215 1373 50  0000 C CNN
F 2 "" H 2200 1200 50  0001 C CNN
F 3 "" H 2200 1200 50  0001 C CNN
	1    2200 1200
	1    0    0    -1  
$EndComp
Wire Wire Line
	2200 1250 2200 1200
$Comp
L Device:Polyfuse_Small F?
U 1 1 61444456
P 1700 1250
F 0 "F?" V 1495 1250 50  0000 C CNN
F 1 "Polyfuse_Small" V 1586 1250 50  0000 C CNN
F 2 "" H 1750 1050 50  0001 L CNN
F 3 "~" H 1700 1250 50  0001 C CNN
	1    1700 1250
	0    1    1    0   
$EndComp
Wire Wire Line
	1250 1250 1600 1250
Wire Wire Line
	1800 1250 2000 1250
$Comp
L power:GND #PWR?
U 1 1 6144525D
P 1350 1600
F 0 "#PWR?" H 1350 1350 50  0001 C CNN
F 1 "GND" H 1355 1427 50  0000 C CNN
F 2 "" H 1350 1600 50  0001 C CNN
F 3 "" H 1350 1600 50  0001 C CNN
	1    1350 1600
	1    0    0    -1  
$EndComp
Wire Wire Line
	1250 1350 1350 1350
$Comp
L power:VDD #PWR?
U 1 1 61458845
P 9900 1900
F 0 "#PWR?" H 9900 1750 50  0001 C CNN
F 1 "VDD" H 9915 2073 50  0000 C CNN
F 2 "" H 9900 1900 50  0001 C CNN
F 3 "" H 9900 1900 50  0001 C CNN
	1    9900 1900
	1    0    0    -1  
$EndComp
Wire Wire Line
	9900 950  9900 1100
Wire Wire Line
	9900 1900 9900 2050
$Comp
L power:GND #PWR?
U 1 1 6145C51B
P 9250 1700
F 0 "#PWR?" H 9250 1450 50  0001 C CNN
F 1 "GND" H 9255 1527 50  0000 C CNN
F 2 "" H 9250 1700 50  0001 C CNN
F 3 "" H 9250 1700 50  0001 C CNN
	1    9250 1700
	1    0    0    -1  
$EndComp
$Comp
L power:GND #PWR?
U 1 1 6145D536
P 9250 2650
F 0 "#PWR?" H 9250 2400 50  0001 C CNN
F 1 "GND" H 9255 2477 50  0000 C CNN
F 2 "" H 9250 2650 50  0001 C CNN
F 3 "" H 9250 2650 50  0001 C CNN
	1    9250 2650
	1    0    0    -1  
$EndComp
Wire Wire Line
	9200 3050 9800 3050
Wire Wire Line
	9800 3050 9800 3300
Wire Wire Line
	9800 3300 10000 3300
Wire Wire Line
	9750 3250 9750 3400
Wire Wire Line
	9750 3400 10000 3400
Wire Wire Line
	9200 3550 9750 3550
Wire Wire Line
	9750 3550 9750 3400
Connection ~ 9750 3400
Wire Wire Line
	9200 3750 9800 3750
Wire Wire Line
	9800 3750 9800 3500
Wire Wire Line
	9800 3500 10000 3500
Wire Wire Line
	9200 3250 9750 3250
Wire Wire Line
	8600 3250 8500 3250
Wire Wire Line
	8500 3250 8500 3400
Wire Wire Line
	8500 3550 8600 3550
$Comp
L power:GND #PWR?
U 1 1 61466A3C
P 8500 3900
F 0 "#PWR?" H 8500 3650 50  0001 C CNN
F 1 "GND" H 8505 3727 50  0000 C CNN
F 2 "" H 8500 3900 50  0001 C CNN
F 3 "" H 8500 3900 50  0001 C CNN
	1    8500 3900
	1    0    0    -1  
$EndComp
Wire Wire Line
	8500 3900 8500 3750
Wire Wire Line
	8500 3750 8600 3750
Text GLabel 8300 3400 0    50   Input ~ 0
SSW2
Text GLabel 8300 3050 0    50   Input ~ 0
SSW1
Wire Wire Line
	8300 3050 8600 3050
Wire Wire Line
	8300 3400 8500 3400
Connection ~ 8500 3400
Wire Wire Line
	8500 3400 8500 3550
$Comp
L Interface_CAN_LIN:MCP2562-E-SN U?
U 1 1 61486E5D
P 7850 5050
F 0 "U?" H 7850 5631 50  0000 C CNN
F 1 "MCP2562-E-SN" H 7850 5540 50  0000 C CNN
F 2 "Package_SO:SOIC-8_3.9x4.9mm_P1.27mm" H 7850 4550 50  0001 C CIN
F 3 "http://ww1.microchip.com/downloads/en/DeviceDoc/25167A.pdf" H 7850 5050 50  0001 C CNN
	1    7850 5050
	1    0    0    -1  
$EndComp
$Comp
L Device:CP_Small C?
U 1 1 61483290
P 2000 1400
F 0 "C?" H 2088 1446 50  0000 L CNN
F 1 "100u" H 2088 1355 50  0000 L CNN
F 2 "" H 2000 1400 50  0001 C CNN
F 3 "~" H 2000 1400 50  0001 C CNN
	1    2000 1400
	1    0    0    -1  
$EndComp
Wire Wire Line
	2000 1300 2000 1250
Connection ~ 2000 1250
Wire Wire Line
	2000 1250 2200 1250
Wire Wire Line
	1350 1350 1350 1550
Wire Wire Line
	1350 1550 2000 1550
Wire Wire Line
	2000 1550 2000 1500
Connection ~ 1350 1550
Wire Wire Line
	1350 1550 1350 1600
Text GLabel 8500 4950 2    50   Input ~ 0
CANH
Text GLabel 8500 5150 2    50   Input ~ 0
CANL
Text GLabel 9850 4400 0    50   Input ~ 0
CANL
Text GLabel 9850 4300 0    50   Input ~ 0
CANH
Wire Wire Line
	9850 4300 10000 4300
Wire Wire Line
	8500 4950 8350 4950
Wire Wire Line
	8350 5150 8500 5150
Text GLabel 8300 1450 0    50   Input ~ 0
SW_RL
Text GLabel 8300 2400 0    50   Input ~ 0
SW_FL
Wire Wire Line
	8300 2400 8650 2400
Wire Wire Line
	8300 1450 8650 1450
$Comp
L power:VCC #PWR?
U 1 1 61501E35
P 9900 950
F 0 "#PWR?" H 9900 800 50  0001 C CNN
F 1 "VCC" H 9915 1123 50  0000 C CNN
F 2 "" H 9900 950 50  0001 C CNN
F 3 "" H 9900 950 50  0001 C CNN
	1    9900 950 
	1    0    0    -1  
$EndComp
Wire Wire Line
	9900 1100 10000 1100
Wire Wire Line
	9250 1200 9250 1250
Wire Wire Line
	9250 2200 9250 2150
Wire Wire Line
	10000 2050 9900 2050
$Comp
L Device:R_Small R?
U 1 1 614BA6FD
P 8750 1450
F 0 "R?" V 8554 1450 50  0000 C CNN
F 1 "R_Small" V 8645 1450 50  0000 C CNN
F 2 "" H 8750 1450 50  0001 C CNN
F 3 "~" H 8750 1450 50  0001 C CNN
	1    8750 1450
	0    1    1    0   
$EndComp
$Comp
L Device:R_Small R?
U 1 1 614BAEC7
P 8750 2400
F 0 "R?" V 8554 2400 50  0000 C CNN
F 1 "R_Small" V 8645 2400 50  0000 C CNN
F 2 "" H 8750 2400 50  0001 C CNN
F 3 "~" H 8750 2400 50  0001 C CNN
	1    8750 2400
	0    1    1    0   
$EndComp
Wire Wire Line
	8850 1450 8950 1450
Wire Wire Line
	8850 2400 8950 2400
Wire Wire Line
	9250 1650 9250 1700
Wire Wire Line
	9250 2600 9250 2650
Wire Wire Line
	9250 1200 10000 1200
Wire Wire Line
	9850 4400 10000 4400
Wire Wire Line
	9850 5300 10000 5300
Wire Wire Line
	9850 5400 10000 5400
$Comp
L power:GND #PWR?
U 1 1 614F1925
P 9850 5750
F 0 "#PWR?" H 9850 5500 50  0001 C CNN
F 1 "GND" H 9855 5577 50  0000 C CNN
F 2 "" H 9850 5750 50  0001 C CNN
F 3 "" H 9850 5750 50  0001 C CNN
	1    9850 5750
	1    0    0    -1  
$EndComp
Wire Wire Line
	9850 5750 9850 5700
Wire Wire Line
	9850 5700 10000 5700
$Comp
L power:VCC #PWR?
U 1 1 614F4BD1
P 9850 5150
F 0 "#PWR?" H 9850 5000 50  0001 C CNN
F 1 "VCC" H 9865 5323 50  0000 C CNN
F 2 "" H 9850 5150 50  0001 C CNN
F 3 "" H 9850 5150 50  0001 C CNN
	1    9850 5150
	1    0    0    -1  
$EndComp
Wire Wire Line
	9850 5150 9850 5200
Wire Wire Line
	9850 5200 10000 5200
Wire Wire Line
	9250 2150 10000 2150
$Comp
L power:GND #PWR?
U 1 1 6150AC9B
P 9850 4550
F 0 "#PWR?" H 9850 4300 50  0001 C CNN
F 1 "GND" H 9855 4377 50  0000 C CNN
F 2 "" H 9850 4550 50  0001 C CNN
F 3 "" H 9850 4550 50  0001 C CNN
	1    9850 4550
	1    0    0    -1  
$EndComp
Wire Wire Line
	9850 4550 9850 4500
Wire Wire Line
	9850 4500 10000 4500
$Comp
L Transistor_FET:QM6006D Q?
U 1 1 6152C5A9
P 9150 2400
F 0 "Q?" H 9354 2446 50  0000 L CNN
F 1 "IRLR024NPBF" H 9354 2355 50  0000 L CNN
F 2 "Package_TO_SOT_SMD:TO-252-2" H 9350 2325 50  0001 L CIN
F 3 "http://www.jaolen.com/images/pdf/QM6006D.pdf" H 9150 2400 50  0001 L CNN
	1    9150 2400
	1    0    0    -1  
$EndComp
$Comp
L Transistor_FET:QM6006D Q?
U 1 1 6152D5FC
P 9150 1450
F 0 "Q?" H 9354 1496 50  0000 L CNN
F 1 "IRLR024NPBF" H 9354 1405 50  0000 L CNN
F 2 "Package_TO_SOT_SMD:TO-252-2" H 9350 1375 50  0001 L CIN
F 3 "http://www.jaolen.com/images/pdf/QM6006D.pdf" H 9150 1450 50  0001 L CNN
	1    9150 1450
	1    0    0    -1  
$EndComp
Wire Wire Line
	9850 5600 10000 5600
Wire Wire Line
	9850 5500 10000 5500
$Comp
L Connector:Conn_01x06_Female J?
U 1 1 614969FD
P 10200 5400
F 0 "J?" H 10228 5376 50  0000 L CNN
F 1 "Cockpit Data" H 10228 5285 50  0000 L CNN
F 2 "" H 10200 5400 50  0001 C CNN
F 3 "~" H 10200 5400 50  0001 C CNN
	1    10200 5400
	1    0    0    -1  
$EndComp
$Comp
L Connector:Conn_01x03_Female J?
U 1 1 6149B6B3
P 10200 4400
F 0 "J?" H 10228 4426 50  0000 L CNN
F 1 "Battery CAN Bus" H 10228 4335 50  0000 L CNN
F 2 "" H 10200 4400 50  0001 C CNN
F 3 "~" H 10200 4400 50  0001 C CNN
	1    10200 4400
	1    0    0    -1  
$EndComp
$Comp
L Connector:Conn_01x03_Female J?
U 1 1 6149BF2B
P 10200 3400
F 0 "J?" H 10228 3426 50  0000 L CNN
F 1 "Controller Speed Switch" H 10228 3335 50  0000 L CNN
F 2 "" H 10200 3400 50  0001 C CNN
F 3 "~" H 10200 3400 50  0001 C CNN
	1    10200 3400
	1    0    0    -1  
$EndComp
Text GLabel 9850 5400 0    50   Input ~ 0
CANL
Text GLabel 9850 5300 0    50   Input ~ 0
CANH
Text GLabel 7250 4950 0    50   Input ~ 0
CANL
Wire Wire Line
	7250 4850 7350 4850
Wire Wire Line
	7250 4950 7350 4950
Text GLabel 7250 4850 0    50   Input ~ 0
TXD
$Comp
L RF_Module:ESP32-S2-WROVER U?
U 1 1 614C9ACB
P 5100 3500
F 0 "U?" H 5100 4881 50  0000 C CNN
F 1 "ESP32-S2-WROVER" H 5100 4790 50  0000 C CNN
F 2 "RF_Module:ESP32-S2-WROVER" H 5850 2350 50  0001 C CNN
F 3 "https://www.espressif.com/sites/default/files/documentation/esp32-s2-wroom_esp32-s2-wroom-i_datasheet_en.pdf" H 4800 2700 50  0001 C CNN
	1    5100 3500
	1    0    0    -1  
$EndComp
$Comp
L Regulator_Switching:LT1074 U?
U 1 1 614C0B56
P 2250 2700
F 0 "U?" H 2375 3115 50  0000 C CNN
F 1 "LT1074" H 2375 3024 50  0000 C CNN
F 2 "" H 2300 2400 50  0001 C CNN
F 3 "https://www.st.com/resource/en/datasheet/viper26.pdf" H 2300 2400 50  0001 C CNN
	1    2250 2700
	1    0    0    -1  
$EndComp
$Comp
L Device:C_Small C?
U 1 1 614C14DF
P 2400 3450
F 0 "C?" H 2492 3496 50  0000 L CNN
F 1 "C_Small" H 2492 3405 50  0000 L CNN
F 2 "" H 2400 3450 50  0001 C CNN
F 3 "~" H 2400 3450 50  0001 C CNN
	1    2400 3450
	1    0    0    -1  
$EndComp
$Comp
L Device:R_Small R?
U 1 1 614C2305
P 2400 3200
F 0 "R?" H 2459 3246 50  0000 L CNN
F 1 "R_Small" H 2459 3155 50  0000 L CNN
F 2 "" H 2400 3200 50  0001 C CNN
F 3 "~" H 2400 3200 50  0001 C CNN
	1    2400 3200
	1    0    0    -1  
$EndComp
$Comp
L Device:R_Small R?
U 1 1 614C2E84
P 3400 3200
F 0 "R?" H 3459 3246 50  0000 L CNN
F 1 "R_Small" H 3459 3155 50  0000 L CNN
F 2 "" H 3400 3200 50  0001 C CNN
F 3 "~" H 3400 3200 50  0001 C CNN
	1    3400 3200
	1    0    0    -1  
$EndComp
$Comp
L Device:R_Small R?
U 1 1 614C3B08
P 3400 2700
F 0 "R?" H 3459 2746 50  0000 L CNN
F 1 "R_Small" H 3459 2655 50  0000 L CNN
F 2 "" H 3400 2700 50  0001 C CNN
F 3 "~" H 3400 2700 50  0001 C CNN
	1    3400 2700
	1    0    0    -1  
$EndComp
$Comp
L Device:CP_Small C?
U 1 1 614C43D1
P 1750 3200
F 0 "C?" H 1838 3246 50  0000 L CNN
F 1 "CP_Small" H 1838 3155 50  0000 L CNN
F 2 "" H 1750 3200 50  0001 C CNN
F 3 "~" H 1750 3200 50  0001 C CNN
	1    1750 3200
	1    0    0    -1  
$EndComp
$Comp
L Device:D_Small D?
U 1 1 614C5806
P 1500 2550
F 0 "D?" H 1500 2343 50  0000 C CNN
F 1 "D_Small" H 1500 2434 50  0000 C CNN
F 2 "" V 1500 2550 50  0001 C CNN
F 3 "~" V 1500 2550 50  0001 C CNN
	1    1500 2550
	-1   0    0    1   
$EndComp
$Comp
L Device:D_Schottky_Small D?
U 1 1 614C7842
P 2950 3200
F 0 "D?" V 2904 3270 50  0000 L CNN
F 1 "D_Schottky_Small" V 2995 3270 50  0000 L CNN
F 2 "" V 2950 3200 50  0001 C CNN
F 3 "~" V 2950 3200 50  0001 C CNN
	1    2950 3200
	0    1    1    0   
$EndComp
$Comp
L Device:L_Core_Ferrite L?
U 1 1 614C938A
P 3150 2550
F 0 "L?" V 3375 2550 50  0000 C CNN
F 1 "L_Core_Ferrite" V 3284 2550 50  0000 C CNN
F 2 "" H 3150 2550 50  0001 C CNN
F 3 "~" H 3150 2550 50  0001 C CNN
	1    3150 2550
	0    -1   -1   0   
$EndComp
Wire Wire Line
	2750 2550 2950 2550
Wire Wire Line
	2950 2550 2950 3100
Connection ~ 2950 2550
Wire Wire Line
	2950 2550 3000 2550
Wire Wire Line
	3300 2550 3400 2550
Wire Wire Line
	3400 2550 3400 2600
Wire Wire Line
	3400 3100 3400 2950
Wire Wire Line
	2400 3050 2400 3000
Wire Wire Line
	2750 2800 2850 2800
Wire Wire Line
	2850 2800 2850 2950
Wire Wire Line
	2850 2950 3400 2950
Connection ~ 3400 2950
Wire Wire Line
	3400 2950 3400 2800
Wire Wire Line
	2950 3300 2950 3600
Wire Wire Line
	2950 3600 2400 3600
Wire Wire Line
	2400 3600 2400 3550
Wire Wire Line
	2950 3600 3400 3600
Wire Wire Line
	3400 3600 3400 3300
Connection ~ 2950 3600
Wire Wire Line
	2400 3600 2200 3600
Wire Wire Line
	1750 3600 1750 3300
Connection ~ 2400 3600
Wire Wire Line
	1750 3100 1750 2550
Wire Wire Line
	1750 2550 1600 2550
Wire Wire Line
	1750 2550 2000 2550
Connection ~ 1750 2550
Wire Wire Line
	2200 3000 2200 3600
Connection ~ 2200 3600
Wire Wire Line
	2200 3600 1750 3600
$Comp
L power:GND #PWR?
U 1 1 614E2880
P 2400 3650
F 0 "#PWR?" H 2400 3400 50  0001 C CNN
F 1 "GND" H 2405 3477 50  0000 C CNN
F 2 "" H 2400 3650 50  0001 C CNN
F 3 "" H 2400 3650 50  0001 C CNN
	1    2400 3650
	1    0    0    -1  
$EndComp
Wire Wire Line
	2400 3650 2400 3600
$Comp
L power:VDD #PWR?
U 1 1 614F0368
P 1250 2500
F 0 "#PWR?" H 1250 2350 50  0001 C CNN
F 1 "VDD" H 1265 2673 50  0000 C CNN
F 2 "" H 1250 2500 50  0001 C CNN
F 3 "" H 1250 2500 50  0001 C CNN
	1    1250 2500
	1    0    0    -1  
$EndComp
Wire Wire Line
	1250 2500 1250 2550
Wire Wire Line
	1250 2550 1400 2550
$Comp
L power:VCC #PWR?
U 1 1 614F325A
P 3600 2500
F 0 "#PWR?" H 3600 2350 50  0001 C CNN
F 1 "VCC" H 3615 2673 50  0000 C CNN
F 2 "" H 3600 2500 50  0001 C CNN
F 3 "" H 3600 2500 50  0001 C CNN
	1    3600 2500
	1    0    0    -1  
$EndComp
Wire Wire Line
	3400 2550 3600 2550
Wire Wire Line
	3600 2550 3600 2500
Connection ~ 3400 2550
$Comp
L Connector:Conn_01x04_Female J?
U 1 1 614B7657
P 1050 4350
F 0 "J?" H 942 4635 50  0000 C CNN
F 1 "Conn_01x04_Female" H 942 4544 50  0000 C CNN
F 2 "" H 1050 4350 50  0001 C CNN
F 3 "~" H 1050 4350 50  0001 C CNN
	1    1050 4350
	-1   0    0    -1  
$EndComp
$Comp
L Connector:Conn_01x03_Female J?
U 1 1 614B8F35
P 1050 5000
F 0 "J?" H 942 5285 50  0000 C CNN
F 1 "Conn_01x03_Female" H 942 5194 50  0000 C CNN
F 2 "" H 1050 5000 50  0001 C CNN
F 3 "~" H 1050 5000 50  0001 C CNN
	1    1050 5000
	-1   0    0    -1  
$EndComp
$Comp
L Connector:Conn_01x05_Male J?
U 1 1 614C8595
P 1050 5700
F 0 "J?" H 1158 6081 50  0000 C CNN
F 1 "Conn_01x05_Male" H 1158 5990 50  0000 C CNN
F 2 "" H 1050 5700 50  0001 C CNN
F 3 "~" H 1050 5700 50  0001 C CNN
	1    1050 5700
	1    0    0    -1  
$EndComp
$EndSCHEMATC
